<?xml version="1.0" encoding="UTF-8"?>
<svg width="174px" height="174px" viewBox="0 0 174 174" version="1.1" xmlns="http://www.w3.org/2000/svg" xmlns:xlink="http://www.w3.org/1999/xlink">
    <title>Illustrations_047</title>
    <g id="Investor" stroke="none" stroke-width="1" fill="none" fill-rule="evenodd">
        <g id="LCX-1280" transform="translate(-170.000000, -1008.000000)">
            <g id="Value-Props-Module" transform="translate(0.000000, 872.000000)">
                <g id="Value-Prop-1" transform="translate(80.000000, 136.000000)">
                    <g id="Illustrations_071" transform="translate(90.000000, 0.000000)">
                        <g id="Guides">
                            <rect id="Rectangle" x="0" y="0" width="174" height="174"></rect>
                        </g>
                        <g id="Illustrations" transform="translate(8.700000, 40.020000)">
                            <rect id="Rectangle" fill="#CBD8DE" fill-rule="nonzero" x="12.52539" y="0" width="131.759325" height="92.94819" rx="5.229135"></rect>
                            <rect id="Rectangle" stroke="#CBD8DE" stroke-width="0.595515" fill="#FFFFFF" fill-rule="nonzero" x="18.284355" y="7.12356" width="120.26532" height="74.83653"></rect>
                            <rect id="Rectangle" stroke="#CBD8DE" stroke-width="0.595515" fill="#FFFFFF" fill-rule="nonzero" x="78.417015" y="7.12356" width="60.13266" height="74.83653"></rect>
                            <path d="M-1.54543045e-15,89.28549 L156.6,89.28549 L156.6,90.498705 C156.6,92.4103254 155.050325,93.96 153.138705,93.96 L3.461295,93.96 C2.54330249,93.96 1.66290856,93.5953289 1.01378983,92.9462102 C0.364671105,92.2970914 -1.54543045e-15,91.4166975 -1.54543045e-15,90.498705 L-1.54543045e-15,89.28549 Z" id="Path" fill="#99B1BF" fill-rule="nonzero"></path>
                            <path d="M68.786115,90.113295 L87.813885,90.113295 C88.2704768,90.1125825 88.6408429,89.7433822 88.642995,89.286795 L67.957005,89.286795 C67.959394,89.7432832 68.3296216,90.1123452 68.786115,90.113295 L68.786115,90.113295 Z" id="Path" fill="#FFFFFF" fill-rule="nonzero"></path>
                            <circle id="Oval" fill="#252E33" fill-rule="nonzero" cx="78.404835" cy="3.304695" r="1"></circle>
                            <g id="Group-4" transform="translate(34.421353, 24.847718)" stroke-linecap="round" stroke-width="2">
                                <path d="M19.9923805,6 C26.250942,8.88318302 29.4039227,15.8230145 27.3999587,22.3043639 C25.3959947,28.7857132 18.8411165,32.8485175 12,31.8494716" id="Path" stroke="#708DA0"></path>
                                <path d="M8.00236058,30 C1.74602151,27.1143878 -1.40412408,20.1743789 0.600868534,13.6939534 C2.60586115,7.21352795 9.15987835,3.1517326 16,4.1504752" id="Path" stroke="#82CDE5"></path>
                                <polyline id="Path" stroke="#82CDE5" stroke-linejoin="round" points="11 0 14.0002795 2.00025657 17 4 14.0002795 6.00025657 11 8"></polyline>
                                <polyline id="Path" stroke="#708DA0" stroke-linejoin="round" points="17 36 14.0002795 33.9997434 11 32 14.0002795 29.9997434 17 28"></polyline>
                            </g>
                            <rect id="Rectangle" fill="#82CDE5" fill-rule="nonzero" x="113.765443" y="42.6824175" width="12" height="12"></rect>
                            <rect id="Rectangle" fill="#1C5191" fill-rule="nonzero" x="91.7654425" y="39.6824175" width="12" height="12"></rect>
                            <rect id="Rectangle" fill="#708DA0" fill-rule="nonzero" x="108.765443" y="25.6824175" width="12" height="12"></rect>
                            <polygon id="Path" fill="#252E33" fill-rule="nonzero" points="121.161809 51.6824175 122.96339 54.0261598 124.765443 56.3699021 122.651959 56.6482245 120.765443 57.6824175 120.963626 54.6826647"></polygon>
                            <polygon id="Path" fill="#252E33" fill-rule="nonzero" points="123.765443 59.3760713 123.059168 59.6824175 121.765443 53.9887637 122.471717 53.6824175"></polygon>
                        </g>
                    </g>
                </g>
            </g>
        </g>
    </g>
</svg>